car_id,break_id,gps_before_break_lon,gps_before_break_lat,gps_after_break_lon,gps_after_break_lat,timestamp_before,timestamp_after,duration_of_stop
31,1,24.88592916,36.06367446,24.88586737,36.06371539,01/17/2014 07:36:23,01/17/2014 07:59:01,1358
31,2,24.87956954,36.04802796,24.87957551,36.04802525,01/17/2014 08:06:09,01/17/2014 12:15:01,14932
31,3,24.85097225,36.06343218,24.85103141,36.06346345,01/17/2014 12:23:17,01/17/2014 13:29:01,3944
31,4,24.87956844,36.04802903,24.8795687,36.04802705,01/17/2014 13:37:17,01/17/2014 17:29:01,13904
31,5,24.89520395,36.0707297,24.89524679,36.07064918,01/17/2014 17:36:07,01/18/2014 12:35:01,68334
31,6,24.89991391,36.0545194,24.89992893,36.05451633,01/18/2014 12:39:37,01/18/2014 13:48:01,4104
31,7,24.89521968,36.07066468,24.89521084,36.07072848,01/18/2014 13:52:36,01/18/2014 14:01:01,505
31,8,24.89521084,36.07072848,24.89519635,36.07073741,01/18/2014 14:01:01,01/19/2014 13:15:01,83640
31,9,24.86072773,36.08957939,24.8607611,36.08960361,01/19/2014 13:19:28,01/19/2014 15:50:01,9033
31,10,24.89517128,36.07066623,24.89517891,36.07062423,01/19/2014 15:54:28,01/19/2014 18:41:01,9993
31,11,24.90248831,36.05580186,24.90246659,36.05573638,01/19/2014 18:45:28,01/19/2014 19:46:01,3633
