Name;Lat;Long
Abila Airport;36.051010;24.825900
Abila Scrapyard;36.074337;24.845923
Ahaggo Museum;36.07592;24.879364
Albert's Fine Clothing;36.07522;24.857564
Bean There Done That;36.08362;24.850963
Brew've Been Served;36.056721;24.902965
Carlyle Chemical Inc.;36.05852;24.882465
Chostus Hotel;36.069421;24.893565
Coffee Cameleon;36.054621;24.889765
Coffee Shack;36.07432;24.859714
Desafio Golf Course;36.08952;24.860663
Frank's Fuel;36.07412;24.839863
Frydos Autosupply n' More;36.058021;24.905665
Gelatogalore;36.06032;24.862464
General Grocer;36.06122;24.857964
Guy's Gyros;36.058021;24.898865
Hallowed Grounds;36.063621;24.885015
Jack's Magical Beans;36.06847;24.873064
Katerina's Cafe;36.054921;24.898365
Kronos Mart;36.06582;24.849114
Kronos Pipe and Irrigation;;
Maximum Iron and Steel;36.06352;24.839063
Nationwide Refinery;36.055584;24.8861535
Octavio's Office Supplies;;
Ouzeri Elian;36.05289;24.872955
Roberts and Sons;36.06342;24.852019
Stewart and Sons Fabrication;;
U-Pump;36.06862;24.868564
Port of Abila;36.05448;24.90821
GAStech;36.047421;24.881065
